ID         RA           DEC     spt            AV      SP    IRE   Xray
1       83.211210   -6.185930   M3.0           NaN     Y      N     ?
2       83.222980   -6.100260   M3.6           NaN     Y      N     ?
3       83.234540   -6.055240   M1.5           NaN     Y      N     ?
4       83.241310   -6.045190   M2.6           NaN     Y      N     ?
5       83.302440   -6.057710   M3.0           NaN     Y      N     ?
6       83.308960   -6.196890   M2.6           NaN     Y      N     ?
7       83.317030   -6.309800   M0.5           NaN     Y      N     ?
8       83.330620   -6.240460   M4.6           NaN     Y      N     ?
9       83.332560   -6.073090   M2.2           NaN     Y      Y     ?
10      83.342350   -6.198360   M0.6           NaN     Y      N     ?
11      83.344390   -6.119390   M1.8           NaN     Y      N     ?
12      83.348710   -6.159310   M1.5           NaN     Y      N     ?
13      83.356340   -6.109480   M3.0           NaN     Y      Y     ?
14      83.368680   -6.035050   M3.0           NaN     Y      N     ?
15      83.375870   -6.069310   M3.0           NaN     Y      N     ?
16      83.379190   -6.101490   M3.4           NaN     Y      N     ?
17      83.381120   -6.165030   M4.9           NaN     Y      Y     ?
18      83.382400   -6.404760   M2.6           NaN     Y      N     ?
19      83.385650   -6.113210   M4.3           NaN     Y      N     ?
20      83.387510   -6.310440   M0.5           NaN     Y      Y     ?
21      83.390770   -6.439460   M4.2           NaN     Y      N     ?
22      83.393210   -6.231260   M2.1           NaN     Y      Y     ?
23      83.393320   -6.072230   M5.9           NaN     Y      Y     ?
24      83.399190   -6.107200   M3.9           NaN     Y      N     ?
25      83.399560   -6.111540   K3.0           NaN     Y      N     ?
26      83.402230   -6.445060   M3.1           NaN     Y      N     ?
27      83.410370   -6.155390   M2.3           NaN     Y      N     ?
28      83.415610   -6.100890   M5.6           NaN     Y      Y     ?
29      83.424790   -6.263540   M3.8           NaN     Y      Y     ?
30      83.430210   -6.089820   M3.4           NaN     Y      N     ?
31      83.435380   -6.088990   M3.6           NaN     Y      N     ?
32      83.437390   -6.233430   M0.5           NaN     Y      N     ?
33      83.438170   -6.411380   M4.6           NaN     Y      N     ?
34      83.439110   -6.073850   M1.0           NaN     Y      Y     ?
35      83.442710   -6.217940   M4.9           NaN     Y      N     ?
36      83.443730   -6.254650   K4.0           NaN     Y      N     ?
37      83.450240   -6.461690   M3.7           NaN     Y      N     ?
38      83.459540   -6.363610   M2.0           NaN     Y      Y     ?
39      83.459650   -6.358560   M1.0           NaN     Y      N     ?
40      83.462210   -6.253660   M4.9           NaN     Y      N     ?
41      83.472540   -6.286130   M3.4           NaN     Y      N     ?
42      83.475620   -6.110390   M3.0           NaN     Y      N     ?
43      83.477050   -6.261500   M4.6           NaN     Y      N     ?
44      83.477380   -6.035700   K4.3           NaN     Y      N     ?
45      83.477430   -6.355230   M4.8           NaN     Y      Y     ?
46      83.497800   -6.355070   M4.1           NaN     Y      Y     ?
47      83.504450   -6.040690   K7.6           NaN     Y      Y     ?
48      83.510330   -6.368970   M3.9           NaN     Y      N     ?
49      83.510470   -6.075330   M4.3           NaN     Y      Y     ?
50      83.511890   -6.097480   M4.7           NaN     Y      N     ?
51      83.515860   -6.267950   M2.2           NaN     Y      N     ?
52      83.518500   -6.527220   M4.0           NaN     Y      Y     ?
53      83.525030   -6.103250   M4.6           NaN     Y      Y     ?
54      83.531380   -6.079520   M2.6           NaN     Y      N     ?
55      83.533130   -6.209440   M4.0           NaN     Y      Y     ?
56      83.548260   -6.585800   M4.2           NaN     Y      N     ?
57      83.561420   -6.321660   M2.8           NaN     Y      N     ?
58      83.570550   -6.547070   M4.8           NaN     Y      Y     ?
59      83.573180   -6.060630   M0.7           NaN     Y      N     ?
60      83.576020   -6.033370   M4.9           NaN     Y      Y     ?
61      83.583100   -6.148530   M3.2           NaN     Y      N     ?
62      83.601220   -6.115440   M0.4           NaN     Y      N     ?
63      83.604530   -6.724280   M0.9           NaN     Y      N     ?
64      83.606310   -6.275200   M4.9           NaN     Y      Y     ?
65      83.607870   -6.064400   M4.7           NaN     Y      N     ?
66      83.616970   -6.270280   M0.3           NaN     Y      N     ?
67      83.631020   -6.722950   M3.7           NaN     Y      N     ?
68      83.638340   -6.241350   M5.4           NaN     Y      Y     ?
69      83.640080   -6.188700   M4.8           NaN     Y      Y     ?
70      83.642720   -6.035970   M2.8           NaN     Y      N     ?
71      83.644540   -6.141030   M3.4           NaN     Y      Y     ?
72      83.650660   -6.092970   M1.0           NaN     Y      Y     ?
73      83.651080   -6.081050   M3.2           NaN     Y      N     ?
74      83.651980   -6.703140   M4.5           NaN     Y      N     ?
75      83.657260   -6.042620   M4.7           NaN     Y      N     ?
76      83.661500   -6.139700   M3.7           NaN     Y      N     ?
77      83.665400   -6.120340   M3.5           NaN     Y      N     ?
78      83.666020   -6.142800   M2.7           NaN     Y      N     ?
79      83.679680   -6.210770   M1.8           NaN     Y      N     ?
80      83.703090   -6.195180   M3.5           NaN     Y      N     ?
81      83.703990   -6.129170   M2.1           NaN     Y      N     ?
82      83.705310   -6.003120   M3.5           NaN     Y      N     ?
83      83.712070   -6.003700   M1.1           NaN     Y      N     ?
84      83.717020   -6.055750   M0.8           NaN     Y      N     ?
85      83.718350   -6.199090   M1.9           NaN     Y      N     ?
86      83.720520   -6.809320   M2.9           NaN     Y      N     ?
87      83.724840   -6.181040   M3.5           NaN     Y      Y     ?
88      83.731830   -6.017760   M3.1           NaN     Y      N     ?
89      83.734420   -6.071490   M0.8           NaN     Y      N     ?
90      83.743650   -6.176000   M4.7           NaN     Y      N     ?
91      83.743770   -6.000140   M0.1           NaN     Y      Y     ?
92      83.747410   -6.123010   M4.4           NaN     Y      Y     ?
93      83.752200   -6.023180   M2.2           NaN     Y      Y     ?
94      83.755730   -6.065460   M4.5           NaN     Y      Y     ?
95      83.762170   -6.090330   M2.0           NaN     Y      N     ?
96      83.768200   -6.014650   M3.2           NaN     Y      N     ?
97      83.769970   -6.005750   M0.4           NaN     Y      N     ?
98      83.786250   -6.083980   K2.4           NaN     Y      N     ?
99      83.789610   -6.146110   M3.1           NaN     Y      N     ?
100     83.794230   -6.029070   M3.2           NaN     Y      N     ?
101     83.796220   -6.006010   M4.3           NaN     Y      N     ?
102     83.802380   -6.953280   M3.2           NaN     Y      N     ?
103     83.808070   -6.002450   M4.5           NaN     Y      N     ?
104     83.821260   -6.035800   M3.7           NaN     Y      N     ?
105     83.822210   -6.087700   M2.0           NaN     Y      N     ?
106     83.827960   -6.057680   M4.7           NaN     Y      N     ?
107     83.829760   -6.077150   M4.2           NaN     Y      N     ?
108     83.830520   -6.063100   M5.8           NaN     Y      Y     ?
109     83.837420   -6.066850   M4.5           NaN     Y      Y     ?
110     83.838750   -6.940120   M2.8           NaN     Y      Y     ?
111     83.846940   -6.050270   M4.4           NaN     Y      N     ?
112     83.847830   -6.023610   M0.7           NaN     Y      N     ?
113     83.852090   -6.029520   M2.5           NaN     Y      Y     ?
114     83.868230   -6.016820   M6.0           NaN     Y      Y     ?
115     83.869990   -6.049550   M4.8           NaN     Y      N     ?
116     83.875700   -6.050730   K3.1           NaN     Y      N     ?
117     83.876830   -6.083610   M5.5           NaN     Y      Y     ?
118     83.889910   -6.038970   M3.7           NaN     Y      N     ?
119     83.894370   -6.046430   M1.3           NaN     Y      Y     ?
120     83.905540   -6.000010   M3.5           NaN     Y      N     ?
121     83.938010   -6.018680   M3.5           NaN     Y      N     ?
122     83.947800   -6.007550   M5.9           NaN     Y      N     ?
123     83.949980   -6.026320   M2.5           NaN     Y      N     ?
124     84.185610   -6.035810   M4.8           NaN     Y      N     ?
125     84.387200   -7.601010   M3.3           NaN     Y      N     ?
126     85.056580   -8.470530   M1.6           NaN     Y      N     ?
127     85.057500   -8.443820   M3.5           NaN     Y      N     ?
128     85.171360   -8.823240   M2.8           NaN     Y      N     ?
129     85.195720   -8.759630   M5.1           NaN     Y      N     ?
130     85.200280   -8.845540   M3.0           NaN     Y      Y     ?
131     85.207750   -8.965140   M4.4           NaN     Y      N     ?
132     85.210390   -8.922790   M0.7           NaN     Y      N     ?
133     85.220030   -8.843130   M4.9           NaN     Y      Y     ?
134     85.268300   -8.968700   K7.4           NaN     Y      N     ?
135     85.300510   -8.981290   M2.0           NaN     Y      Y     ?
136     85.300970   -8.983180   M4.4           NaN     Y      Y     ?
137     85.302340   -8.879450   M7.0           NaN     Y      Y     ?
138     85.311970   -8.999170   K7.8           NaN     Y      N     ?
139     85.346810   -8.995160   M0.5           NaN     Y      Y     ?
140     85.352100   -8.942250   K7.0           NaN     Y      Y     ?
141     85.943540   -8.314440   M1.4           NaN     Y      N     ?
