 1  colours were created.
 I 

   3.00       2  03 44 21.272 +32 12 37.27   1378.618    231.107     15.903      0.001  OO
   3.00       3  03 44 20.917 +32 12 37.46   1392.292    230.819     15.703      0.001  OO
   3.00       6  03 44 21.763 +32 12 31.36   1359.380    248.601     14.971      0.001  OV
   3.00       8  03 44 17.912 +32 12 20.28   1506.653    285.292     13.938      0.000  OV
   3.00       9  03 44 41.732 +32 12  2.24    590.078    320.036     16.117      0.001  OV
   3.00      12  03 44 22.977 +32 11 57.24   1310.507    350.898     14.433      0.000  OV
   3.00      13  03 44 21.294 +32 11 56.31   1375.137    355.092     14.672      0.000  OV
   3.00      14  03 44 23.756 +32 11 56.05   1280.510    353.844     17.567      0.001  OO
   3.00      15  03 44 31.996 +32 11 43.94    963.039    383.658     12.377      0.001  OV
   3.00      16  03 44 38.003 +32 11 37.02    731.695    399.574     15.549      0.000  OV
   3.00      17  03 44 40.117 +32 11 34.19    650.255    406.344     13.635      0.000  OV
   3.00      18  03 44 10.631 +32 11 44.43   1784.174    399.751     16.710      0.000  OV
   3.00      19  03 44 18.164 +32 11 40.45   1494.410    405.672     17.599      0.001  OO
   3.00      23  03 44 46.317 +32 11 16.59    410.780    454.328     17.358      0.001  OV
   3.00      24  03 44 34.826 +32 11 18.02    852.526    459.763     14.886      0.000  OV
   3.00      26  03 44 44.838 +32 11  5.57    466.909    488.948     15.297      0.000  OV
   3.00      27  03 44 47.611 +32 10 55.57    359.613    516.848     16.619      0.001  OV
   3.00      28  03 44 45.221 +32 10 55.72    451.498    518.468     17.174      0.001  OV
   3.00      29  03 44 23.996 +32 11  0.03   1267.632    523.261     11.991      0.001  OV
   3.00      30  03 44 43.707 +32 10 47.91    509.182    543.389     16.446      0.000  OV
   3.00      32  03 44 31.348 +32 10 46.96    984.169    556.719     15.911      0.000  OV
   3.00      33  03 44 12.764 +32 10 55.24   1699.090    546.950     16.886      0.001  OO
   3.00      34  03 44 31.203 +32 06 22.11    972.338   1358.737      9.474      0.001  OV
   3.00      37  03 44 29.728 +32 10 39.83   1045.992    579.667     14.287      0.000  OV
   3.00      38  03 44 43.768 +32 10 30.41    505.662    596.342     14.372      0.000  OV
   3.00      39  03 44 27.249 +32 10 37.35   1141.116    589.249     16.475      0.000  OV
   3.00      40  03 44 21.614 +32 10 37.65   1357.765    593.006     15.947      0.001  OV
   3.00      42  03 44 43.040 +32 10 15.15    532.621    643.149     16.100      0.000  OV
   3.00      43  03 44 14.125 +32 10 28.34   1645.025    627.289     14.731      0.000  OV
   3.00      46  03 44 24.670 +32 10 15.07   1238.807    658.830     10.416      0.001  OV
   3.00      47  03 44 41.164 +32 10 10.09    604.380    660.092     16.742      0.001  OV
   3.00      49  03 44 44.454 +32 10  5.54    477.585    671.055     16.693      0.000  OO
   3.00      51  03 44 25.301 +32 10 12.79   1214.409    665.232     15.232      0.002  OV
   3.00      53  03 44 36.945 +32 06 45.50    752.996   1283.105     10.900      0.001  OV
   3.00      54  03 44 18.200 +32 09 59.32   1486.506    711.841     15.726      0.000  OV
   3.00      57  03 44  9.996 +32 09 41.71   1800.803    771.811     16.190      0.000  OV
   3.00      59  03 44 19.127 +32 09 31.27   1449.092    796.007     11.008      0.001  OV
   3.00      61  03 44 49.599 +32 09 11.99    276.164    828.735     15.014      0.000  OV
   3.00      62  03 44 37.191 +32 09 16.15    753.544    826.754     14.343      0.001  OV
   3.00      63  03 44 40.159 +32 09 12.92    639.188    834.016     16.344      0.001  OV
   3.00      64  03 44 32.768 +32 09 15.72    923.576    831.802     14.649      0.002  OV
   3.00      66  03 44 42.016 +32 09  0.06    566.929    871.367     14.794      0.000  OV
   3.00      67  03 44 37.411 +32 09  0.90    744.058    872.733     15.089      0.000  OV
   3.00      68  03 44 25.758 +32 09  5.94   1192.478    867.245     17.523      0.001  OV
   3.00      75  03 44 32.588 +32 08 42.45    928.289    932.665     13.282      0.001  OV
   3.00      76  03 44 42.763 +32 08 33.76    536.466    950.374     15.760      0.001  OV
   3.00      79  03 44 43.425 +32 08 17.21    509.894    999.902     12.864      0.001  OV
   3.00      80  03 44 44.583 +32 08 12.54    465.030   1013.051     15.496      0.000  OV
   3.00      81  03 44 26.686 +32 08 20.35   1153.801   1004.513     15.955      0.000  OV
   3.00      86  03 44 29.121 +32 07 57.38   1058.685   1072.024     15.753      0.001  OO
   3.00      87  03 44 29.114 +32 07 51.01   1058.524   1091.328     17.327      0.001  OO
   3.00      88  03 44 43.520 +32 07 42.84    503.902   1103.881     14.926      0.000  OV
   3.00      89  03 44 30.301 +32 07 42.64   1012.308   1115.687     17.052      0.001  OV
   3.00      90  03 44 39.240 +32 07 35.56    668.030   1129.590     13.033      0.000  OV
   3.00      93  03 44 21.065 +32 07 38.69   1367.284   1135.283     10.807      0.001  OV
   3.00      94  03 44 44.650 +32 07 30.20    459.599   1141.195     16.695      0.001  OV
   3.00      95  03 44 27.881 +32 07 31.62   1104.656   1151.051     14.114      0.000  OV
   3.00      96  03 44 19.239 +32 07 34.73   1437.256   1148.768     15.014      0.001  OV
   3.00     101  03 44 23.628 +32 07 11.72   1266.966   1214.845     16.722      0.001  OO
   3.00     102  03 44 42.983 +32 06 53.70    521.273   1253.137     17.118      0.001  OO
   3.00     103  03 44 31.637 +32 06 53.40    957.689   1263.644     16.042      0.001  OV
   3.00     104  03 44 30.818 +32 09 55.78   1001.190    712.134     10.813      0.001  OV
   3.00     109  03 44 41.215 +32 06 27.16    587.508   1335.007     16.801      0.001  OV
   3.00     110  03 44 30.548 +32 06 29.76    998.026   1336.118     14.978      0.002  OV
   3.00     112  03 44 34.448 +32 06 25.09    847.704   1346.983     15.957      0.000  OV
   3.00     113  03 44 21.665 +32 06 24.85   1339.429   1358.352     14.558      0.000  OV
   3.00     114  03 44 37.404 +32 06 11.76    733.091   1384.865     13.856      0.000  OV
   3.00     118  03 44 19.178 +32 05 59.92   1433.491   1435.900     16.855      0.001  OV
   3.00     119  03 44 29.711 +32 05 52.20   1027.782   1450.559     16.045      0.001  OO
   3.00     120  03 44 46.926 +32 05 36.86    364.385   1482.399     15.894      0.000  OV
   3.00     121  03 44 22.289 +32 05 42.76   1312.720   1485.306     14.807      0.000  OV
   3.00     122  03 44 20.277 +32 05 43.75   1390.181   1483.944     16.928      0.001  OV
   3.00     123  03 44 16.514 +32 05 32.77   1534.267   1520.272     16.460      0.001  OO
   3.00     124  03 44 27.978 +32 05 19.70   1092.304   1550.403     17.128      0.001  OV
   3.00     125  03 44 38.604 +32 05  6.47    682.545   1581.530     14.785      0.000  OV
   3.00     128  03 44 35.691 +32 04 52.78    793.732   1625.434     16.007      0.000  OV
   3.00     129  03 44  7.701 +32 05  5.01   1871.620   1611.453     16.512      0.001  OV
   3.00     130  03 44 18.165 +32 04 57.02   1468.449   1627.175     15.357      0.000  OV
   3.00     132  03 44 17.771 +32 04 47.68   1483.019   1655.762     15.683      0.000  OV
   3.00     133  03 44 38.067 +32 04 33.78    701.055   1680.960     17.802      0.001  OO
   3.00     135  03 44 26.034 +32 04 30.45   1163.918   1701.119     12.686      0.000  OV
   3.00     136  03 44 34.353 +32 04 21.90    843.200   1720.072     16.536      0.000  OO
   3.00     137  03 44 32.803 +32 04 13.26    902.276   1747.524     16.150      0.001  OV
   3.00     138  03 44 44.721 +32 04  2.47    442.891   1770.072     13.166      0.000  OV
   3.00     139  03 44 29.523 +32 04  4.53   1027.918   1776.714     17.033      0.001  OV
   3.00     146  03 44 37.986 +32 03 29.63    699.876   1875.259     13.284      0.001  OV
   3.00     154  03 44 31.848 +32 12 44.16    972.674    201.466     17.981      0.001  OV
   3.00     168  03 44 18.096 +32 10 53.47   1494.012    547.995     18.013      0.001  OV
   3.00     172  03 44 24.580 +32 10  3.09   1241.466    695.201     16.337      0.004  OV
   3.00     174  03 44 40.626 +32 09 40.93    623.135    748.819     17.312      0.002  OO
   3.00     176  03 44 40.239 +32 09 32.96    637.478    773.275     16.570      0.001  OV
   3.00     180  03 44 30.058 +32 08 48.90   1026.019    915.267     17.444      0.001  OV
   3.00     183  03 44 41.110 +32 08  7.45    598.249   1031.437     17.784      0.001  OV
   3.00     187  03 44 37.322 +32 07 11.18    740.175   1205.037     16.923      0.001  OV
   3.00     191  03 44 38.863 +32 06 36.44    678.607   1308.887     16.521      0.001  OV
   3.00     193  03 44 25.593 +32 06 25.70   1188.391   1352.540     17.949      0.001  OV
   3.00     196  03 44 31.040 +32 05 46.02    976.232   1468.157     16.692      0.001  OV
   3.00     201  03 44 28.881 +32 04 22.96   1053.844   1721.426     17.838      0.001  OO
   3.00     266  03 44 38.145 +32 10 21.51    721.214    628.076     16.920      0.002  OO
   3.00     268  03 44 37.878 +32 10  6.68    730.480    673.204     17.381      0.004  OO
   3.00     273  03 44 31.310 +32 09 29.16    980.505    792.331     16.723      0.002  OO
   3.00     274  03 44 35.970 +32 09 24.47    801.025    802.612     16.413      0.005  OO
   3.00     277  03 44 29.992 +32 09 21.02   1030.682    818.072     17.063      0.001  OO
